-------------------------------------------------------------------------------
Test set: org.apache.commons.lang3.time.FastDateFormat_ParserTest
-------------------------------------------------------------------------------
Tests run: 29, Failures: 0, Errors: 0, Skipped: 0, Time elapsed: 1.038 sec
