-------------------------------------------------------------------------------
Test set: org.apache.commons.lang3.builder.ShortPrefixToStringStyleTest
-------------------------------------------------------------------------------
Tests run: 8, Failures: 0, Errors: 0, Skipped: 0, Time elapsed: 0 sec
