-------------------------------------------------------------------------------
Test set: org.apache.commons.lang3.concurrent.LazyInitializerTest
-------------------------------------------------------------------------------
Tests run: 3, Failures: 0, Errors: 0, Skipped: 0, Time elapsed: 0 sec
