-------------------------------------------------------------------------------
Test set: org.apache.commons.lang3.ConversionTest
-------------------------------------------------------------------------------
Tests run: 42, Failures: 0, Errors: 0, Skipped: 0, Time elapsed: 0.018 sec
