-------------------------------------------------------------------------------
Test set: org.apache.commons.lang3.math.NumberUtilsTest
-------------------------------------------------------------------------------
Tests run: 80, Failures: 0, Errors: 0, Skipped: 0, Time elapsed: 0.009 sec
