-------------------------------------------------------------------------------
Test set: org.apache.commons.lang3.time.DateUtilsFragmentTest
-------------------------------------------------------------------------------
Tests run: 52, Failures: 0, Errors: 0, Skipped: 0, Time elapsed: 0.02 sec
