C:\ait\labs\labs5\commons-lang3\src\main\java\org\apache\commons\lang3\reflect\MemberUtils.java
C:\ait\labs\labs5\commons-lang3\src\main\java\org\apache\commons\lang3\BooleanUtils.java
C:\ait\labs\labs5\commons-lang3\src\main\java\org\apache\commons\lang3\concurrent\CallableBackgroundInitializer.java
C:\ait\labs\labs5\commons-lang3\src\main\java\org\apache\commons\lang3\mutable\MutableBoolean.java
C:\ait\labs\labs5\commons-lang3\src\main\java\org\apache\commons\lang3\RandomStringUtils.java
C:\ait\labs\labs5\commons-lang3\src\main\java\org\apache\commons\lang3\math\IEEE754rUtils.java
C:\ait\labs\labs5\commons-lang3\src\main\java\org\apache\commons\lang3\AnnotationUtils.java
C:\ait\labs\labs5\commons-lang3\src\main\java\org\apache\commons\lang3\text\translate\CharSequenceTranslator.java
C:\ait\labs\labs5\commons-lang3\src\main\java\org\apache\commons\lang3\mutable\MutableObject.java
C:\ait\labs\labs5\commons-lang3\src\main\java\org\apache\commons\lang3\event\EventUtils.java
C:\ait\labs\labs5\commons-lang3\src\main\java\org\apache\commons\lang3\text\StrMatcher.java
C:\ait\labs\labs5\commons-lang3\src\main\java\org\apache\commons\lang3\time\DurationFormatUtils.java
C:\ait\labs\labs5\commons-lang3\src\main\java\org\apache\commons\lang3\tuple\MutableTriple.java
C:\ait\labs\labs5\commons-lang3\src\main\java\org\apache\commons\lang3\text\translate\JavaUnicodeEscaper.java
C:\ait\labs\labs5\commons-lang3\src\main\java\org\apache\commons\lang3\mutable\MutableLong.java
C:\ait\labs\labs5\commons-lang3\src\main\java\org\apache\commons\lang3\concurrent\BackgroundInitializer.java
C:\ait\labs\labs5\commons-lang3\src\main\java\org\apache\commons\lang3\text\StrBuilder.java
C:\ait\labs\labs5\commons-lang3\src\main\java\org\apache\commons\lang3\concurrent\AtomicInitializer.java
C:\ait\labs\labs5\commons-lang3\src\main\java\org\apache\commons\lang3\builder\CompareToBuilder.java
C:\ait\labs\labs5\commons-lang3\src\main\java\org\apache\commons\lang3\builder\ToStringStyle.java
C:\ait\labs\labs5\commons-lang3\src\main\java\org\apache\commons\lang3\concurrent\MultiBackgroundInitializer.java
C:\ait\labs\labs5\commons-lang3\src\main\java\org\apache\commons\lang3\text\StrLookup.java
C:\ait\labs\labs5\commons-lang3\src\main\java\org\apache\commons\lang3\StringUtils.java
C:\ait\labs\labs5\commons-lang3\src\main\java\org\apache\commons\lang3\concurrent\ConcurrentRuntimeException.java
C:\ait\labs\labs5\commons-lang3\src\main\java\org\apache\commons\lang3\text\FormattableUtils.java
C:\ait\labs\labs5\commons-lang3\src\main\java\org\apache\commons\lang3\JavaVersion.java
C:\ait\labs\labs5\commons-lang3\src\main\java\org\apache\commons\lang3\exception\CloneFailedException.java
C:\ait\labs\labs5\commons-lang3\src\main\java\org\apache\commons\lang3\mutable\MutableByte.java
C:\ait\labs\labs5\commons-lang3\src\main\java\org\apache\commons\lang3\mutable\Mutable.java
C:\ait\labs\labs5\commons-lang3\src\main\java\org\apache\commons\lang3\tuple\ImmutableTriple.java
C:\ait\labs\labs5\commons-lang3\src\main\java\org\apache\commons\lang3\text\translate\UnicodeEscaper.java
C:\ait\labs\labs5\commons-lang3\src\main\java\org\apache\commons\lang3\text\translate\LookupTranslator.java
C:\ait\labs\labs5\commons-lang3\src\main\java\org\apache\commons\lang3\builder\Builder.java
C:\ait\labs\labs5\commons-lang3\src\main\java\org\apache\commons\lang3\EnumUtils.java
C:\ait\labs\labs5\commons-lang3\src\main\java\org\apache\commons\lang3\text\translate\CodePointTranslator.java
C:\ait\labs\labs5\commons-lang3\src\main\java\org\apache\commons\lang3\text\translate\EntityArrays.java
C:\ait\labs\labs5\commons-lang3\src\main\java\org\apache\commons\lang3\concurrent\ConstantInitializer.java
C:\ait\labs\labs5\commons-lang3\src\main\java\org\apache\commons\lang3\text\translate\UnicodeUnescaper.java
C:\ait\labs\labs5\commons-lang3\src\main\java\org\apache\commons\lang3\tuple\ImmutablePair.java
C:\ait\labs\labs5\commons-lang3\src\main\java\org\apache\commons\lang3\text\translate\AggregateTranslator.java
C:\ait\labs\labs5\commons-lang3\src\main\java\org\apache\commons\lang3\text\translate\NumericEntityUnescaper.java
C:\ait\labs\labs5\commons-lang3\src\main\java\org\apache\commons\lang3\mutable\MutableFloat.java
C:\ait\labs\labs5\commons-lang3\src\main\java\org\apache\commons\lang3\time\FastDatePrinter.java
C:\ait\labs\labs5\commons-lang3\src\main\java\org\apache\commons\lang3\time\FastDateFormat.java
C:\ait\labs\labs5\commons-lang3\src\main\java\org\apache\commons\lang3\exception\ExceptionUtils.java
C:\ait\labs\labs5\commons-lang3\src\main\java\org\apache\commons\lang3\text\CompositeFormat.java
C:\ait\labs\labs5\commons-lang3\src\main\java\org\apache\commons\lang3\concurrent\ConcurrentUtils.java
C:\ait\labs\labs5\commons-lang3\src\main\java\org\apache\commons\lang3\CharSetUtils.java
C:\ait\labs\labs5\commons-lang3\src\main\java\org\apache\commons\lang3\concurrent\ConcurrentInitializer.java
C:\ait\labs\labs5\commons-lang3\src\main\java\org\apache\commons\lang3\concurrent\LazyInitializer.java
C:\ait\labs\labs5\commons-lang3\src\main\java\org\apache\commons\lang3\Validate.java
C:\ait\labs\labs5\commons-lang3\src\main\java\org\apache\commons\lang3\BitField.java
C:\ait\labs\labs5\commons-lang3\src\main\java\org\apache\commons\lang3\time\DateParser.java
C:\ait\labs\labs5\commons-lang3\src\main\java\org\apache\commons\lang3\CharUtils.java
C:\ait\labs\labs5\commons-lang3\src\main\java\org\apache\commons\lang3\math\Fraction.java
C:\ait\labs\labs5\commons-lang3\src\main\java\org\apache\commons\lang3\time\DateFormatUtils.java
C:\ait\labs\labs5\commons-lang3\src\main\java\org\apache\commons\lang3\CharSet.java
C:\ait\labs\labs5\commons-lang3\src\main\java\org\apache\commons\lang3\LocaleUtils.java
C:\ait\labs\labs5\commons-lang3\src\main\java\org\apache\commons\lang3\concurrent\AtomicSafeInitializer.java
C:\ait\labs\labs5\commons-lang3\src\main\java\org\apache\commons\lang3\builder\ToStringBuilder.java
C:\ait\labs\labs5\commons-lang3\src\main\java\org\apache\commons\lang3\CharSequenceUtils.java
C:\ait\labs\labs5\commons-lang3\src\main\java\org\apache\commons\lang3\builder\HashCodeBuilder.java
C:\ait\labs\labs5\commons-lang3\src\main\java\org\apache\commons\lang3\exception\ContextedException.java
C:\ait\labs\labs5\commons-lang3\src\main\java\org\apache\commons\lang3\mutable\MutableShort.java
C:\ait\labs\labs5\commons-lang3\src\main\java\org\apache\commons\lang3\tuple\MutablePair.java
C:\ait\labs\labs5\commons-lang3\src\main\java\org\apache\commons\lang3\CharEncoding.java
C:\ait\labs\labs5\commons-lang3\src\main\java\org\apache\commons\lang3\text\translate\NumericEntityEscaper.java
C:\ait\labs\labs5\commons-lang3\src\main\java\org\apache\commons\lang3\ObjectUtils.java
C:\ait\labs\labs5\commons-lang3\src\main\java\org\apache\commons\lang3\builder\StandardToStringStyle.java
C:\ait\labs\labs5\commons-lang3\src\main\java\org\apache\commons\lang3\tuple\Triple.java
C:\ait\labs\labs5\commons-lang3\src\main\java\org\apache\commons\lang3\concurrent\TimedSemaphore.java
C:\ait\labs\labs5\commons-lang3\src\main\java\org\apache\commons\lang3\exception\ContextedRuntimeException.java
C:\ait\labs\labs5\commons-lang3\src\main\java\org\apache\commons\lang3\exception\ExceptionContext.java
C:\ait\labs\labs5\commons-lang3\src\main\java\org\apache\commons\lang3\text\ExtendedMessageFormat.java
C:\ait\labs\labs5\commons-lang3\src\main\java\org\apache\commons\lang3\CharRange.java
C:\ait\labs\labs5\commons-lang3\src\main\java\org\apache\commons\lang3\SystemUtils.java
C:\ait\labs\labs5\commons-lang3\src\main\java\org\apache\commons\lang3\builder\ReflectionToStringBuilder.java
C:\ait\labs\labs5\commons-lang3\src\main\java\org\apache\commons\lang3\reflect\MethodUtils.java
C:\ait\labs\labs5\commons-lang3\src\main\java\org\apache\commons\lang3\ClassUtils.java
C:\ait\labs\labs5\commons-lang3\src\main\java\org\apache\commons\lang3\text\StrTokenizer.java
C:\ait\labs\labs5\commons-lang3\src\main\java\org\apache\commons\lang3\Conversion.java
C:\ait\labs\labs5\commons-lang3\src\main\java\org\apache\commons\lang3\time\DatePrinter.java
C:\ait\labs\labs5\commons-lang3\src\main\java\org\apache\commons\lang3\math\NumberUtils.java
C:\ait\labs\labs5\commons-lang3\src\main\java\org\apache\commons\lang3\Range.java
C:\ait\labs\labs5\commons-lang3\src\main\java\org\apache\commons\lang3\SerializationUtils.java
C:\ait\labs\labs5\commons-lang3\src\main\java\org\apache\commons\lang3\time\StopWatch.java
C:\ait\labs\labs5\commons-lang3\src\main\java\org\apache\commons\lang3\text\translate\OctalUnescaper.java
C:\ait\labs\labs5\commons-lang3\src\main\java\org\apache\commons\lang3\SerializationException.java
C:\ait\labs\labs5\commons-lang3\src\main\java\org\apache\commons\lang3\reflect\FieldUtils.java
C:\ait\labs\labs5\commons-lang3\src\main\java\org\apache\commons\lang3\event\EventListenerSupport.java
C:\ait\labs\labs5\commons-lang3\src\main\java\org\apache\commons\lang3\StringEscapeUtils.java
C:\ait\labs\labs5\commons-lang3\src\main\java\org\apache\commons\lang3\concurrent\ConcurrentException.java
C:\ait\labs\labs5\commons-lang3\src\main\java\org\apache\commons\lang3\mutable\MutableInt.java
C:\ait\labs\labs5\commons-lang3\src\main\java\org\apache\commons\lang3\concurrent\BasicThreadFactory.java
C:\ait\labs\labs5\commons-lang3\src\main\java\org\apache\commons\lang3\text\FormatFactory.java
C:\ait\labs\labs5\commons-lang3\src\main\java\org\apache\commons\lang3\time\DateUtils.java
C:\ait\labs\labs5\commons-lang3\src\main\java\org\apache\commons\lang3\exception\DefaultExceptionContext.java
C:\ait\labs\labs5\commons-lang3\src\main\java\org\apache\commons\lang3\text\WordUtils.java
C:\ait\labs\labs5\commons-lang3\src\main\java\org\apache\commons\lang3\time\FormatCache.java
C:\ait\labs\labs5\commons-lang3\src\main\java\org\apache\commons\lang3\reflect\TypeUtils.java
C:\ait\labs\labs5\commons-lang3\src\main\java\org\apache\commons\lang3\builder\EqualsBuilder.java
C:\ait\labs\labs5\commons-lang3\src\main\java\org\apache\commons\lang3\builder\IDKey.java
C:\ait\labs\labs5\commons-lang3\src\main\java\org\apache\commons\lang3\time\FastDateParser.java
C:\ait\labs\labs5\commons-lang3\src\main\java\org\apache\commons\lang3\reflect\ConstructorUtils.java
C:\ait\labs\labs5\commons-lang3\src\main\java\org\apache\commons\lang3\text\StrSubstitutor.java
C:\ait\labs\labs5\commons-lang3\src\main\java\org\apache\commons\lang3\tuple\Pair.java
C:\ait\labs\labs5\commons-lang3\src\main\java\org\apache\commons\lang3\ArrayUtils.java
C:\ait\labs\labs5\commons-lang3\src\main\java\org\apache\commons\lang3\mutable\MutableDouble.java
